EE446/LAB2/simulation/qsim/de0nano_embedding.msim.vcd
$comment
	File created using the following command:
		vcd file de0nano_embedding.msim.vcd -direction
$end
$date
	Sun Mar 17 18:23:13 2019
$end
$version
	ModelSim Version 10.5b
$end
$timescale
	1ps
$end

$scope module de0nano_embedding_vlg_vec_tst $end
$var reg 34 ! treg_GPIO_0 [33:0] $end
$var reg 2 " KEY [1:0] $end
$var reg 1 # NFlag $end
$var reg 1 $ Qn $end
$var reg 1 % Qz $end
$var reg 1 & R0m $end
$var reg 1 ' R1m $end
$var reg 4 ( SW [3:0] $end
$var reg 2 ) Stat [1:0] $end
$var wire 1 * ALUCtrl [2] $end
$var wire 1 + ALUCtrl [1] $end
$var wire 1 , ALUCtrl [0] $end
$var wire 1 - ASrc [1] $end
$var wire 1 . ASrc [0] $end
$var wire 1 / AccCLR $end
$var wire 1 0 AccParallel $end
$var wire 1 1 AccRight $end
$var wire 1 2 BSrc [1] $end
$var wire 1 3 BSrc [0] $end
$var wire 1 4 GPIO_0 [33] $end
$var wire 1 5 GPIO_0 [32] $end
$var wire 1 6 GPIO_0 [31] $end
$var wire 1 7 GPIO_0 [30] $end
$var wire 1 8 GPIO_0 [29] $end
$var wire 1 9 GPIO_0 [28] $end
$var wire 1 : GPIO_0 [27] $end
$var wire 1 ; GPIO_0 [26] $end
$var wire 1 < GPIO_0 [25] $end
$var wire 1 = GPIO_0 [24] $end
$var wire 1 > GPIO_0 [23] $end
$var wire 1 ? GPIO_0 [22] $end
$var wire 1 @ GPIO_0 [21] $end
$var wire 1 A GPIO_0 [20] $end
$var wire 1 B GPIO_0 [19] $end
$var wire 1 C GPIO_0 [18] $end
$var wire 1 D GPIO_0 [17] $end
$var wire 1 E GPIO_0 [16] $end
$var wire 1 F GPIO_0 [15] $end
$var wire 1 G GPIO_0 [14] $end
$var wire 1 H GPIO_0 [13] $end
$var wire 1 I GPIO_0 [12] $end
$var wire 1 J GPIO_0 [11] $end
$var wire 1 K GPIO_0 [10] $end
$var wire 1 L GPIO_0 [9] $end
$var wire 1 M GPIO_0 [8] $end
$var wire 1 N GPIO_0 [7] $end
$var wire 1 O GPIO_0 [6] $end
$var wire 1 P GPIO_0 [5] $end
$var wire 1 Q GPIO_0 [4] $end
$var wire 1 R GPIO_0 [3] $end
$var wire 1 S GPIO_0 [2] $end
$var wire 1 T GPIO_0 [1] $end
$var wire 1 U GPIO_0 [0] $end
$var wire 1 V LED [7] $end
$var wire 1 W LED [6] $end
$var wire 1 X LED [5] $end
$var wire 1 Y LED [4] $end
$var wire 1 Z LED [3] $end
$var wire 1 [ LED [2] $end
$var wire 1 \ LED [1] $end
$var wire 1 ] LED [0] $end
$var wire 1 ^ QParallel $end
$var wire 1 _ QRight $end
$var wire 1 ` QSrc $end
$var wire 1 a QnCLR $end
$var wire 1 b QzSrc $end
$var wire 1 c R0Src [1] $end
$var wire 1 d R0Src [0] $end
$var wire 1 e R0WE $end
$var wire 1 f R1Clr $end
$var wire 1 g R1Src $end
$var wire 1 h R1WE $end
$var wire 1 i RST $end

$scope module i1 $end
$var wire 1 j gnd $end
$var wire 1 k vcc $end
$var wire 1 l unknown $end
$var tri1 1 m devclrn $end
$var tri1 1 n devpor $end
$var tri1 1 o devoe $end
$var wire 1 p SW[3]~input_o $end
$var wire 1 q Stat[0]~input_o $end
$var wire 1 r R1m~input_o $end
$var wire 1 s R0m~input_o $end
$var wire 1 t NFlag~input_o $end
$var wire 1 u Qn~input_o $end
$var wire 1 v Qz~input_o $end
$var wire 1 w GPIO_0[3]~input_o $end
$var wire 1 x GPIO_0[4]~input_o $end
$var wire 1 y GPIO_0[5]~input_o $end
$var wire 1 z GPIO_0[6]~input_o $end
$var wire 1 { GPIO_0[7]~input_o $end
$var wire 1 | GPIO_0[8]~input_o $end
$var wire 1 } GPIO_0[9]~input_o $end
$var wire 1 ~ GPIO_0[10]~input_o $end
$var wire 1 !! GPIO_0[11]~input_o $end
$var wire 1 "! GPIO_0[12]~input_o $end
$var wire 1 #! GPIO_0[13]~input_o $end
$var wire 1 $! GPIO_0[14]~input_o $end
$var wire 1 %! GPIO_0[15]~input_o $end
$var wire 1 &! GPIO_0[16]~input_o $end
$var wire 1 '! GPIO_0[17]~input_o $end
$var wire 1 (! GPIO_0[18]~input_o $end
$var wire 1 )! GPIO_0[19]~input_o $end
$var wire 1 *! GPIO_0[20]~input_o $end
$var wire 1 +! GPIO_0[21]~input_o $end
$var wire 1 ,! GPIO_0[22]~input_o $end
$var wire 1 -! GPIO_0[23]~input_o $end
$var wire 1 .! GPIO_0[24]~input_o $end
$var wire 1 /! GPIO_0[25]~input_o $end
$var wire 1 0! GPIO_0[26]~input_o $end
$var wire 1 1! GPIO_0[27]~input_o $end
$var wire 1 2! GPIO_0[28]~input_o $end
$var wire 1 3! GPIO_0[29]~input_o $end
$var wire 1 4! GPIO_0[30]~input_o $end
$var wire 1 5! GPIO_0[31]~input_o $end
$var wire 1 6! GPIO_0[32]~input_o $end
$var wire 1 7! GPIO_0[33]~input_o $end
$var wire 1 8! GPIO_0[2]~input_o $end
$var wire 1 9! GPIO_0[3]~output_o $end
$var wire 1 :! GPIO_0[4]~output_o $end
$var wire 1 ;! GPIO_0[5]~output_o $end
$var wire 1 <! GPIO_0[6]~output_o $end
$var wire 1 =! GPIO_0[7]~output_o $end
$var wire 1 >! GPIO_0[8]~output_o $end
$var wire 1 ?! GPIO_0[9]~output_o $end
$var wire 1 @! GPIO_0[10]~output_o $end
$var wire 1 A! GPIO_0[11]~output_o $end
$var wire 1 B! GPIO_0[12]~output_o $end
$var wire 1 C! GPIO_0[13]~output_o $end
$var wire 1 D! GPIO_0[14]~output_o $end
$var wire 1 E! GPIO_0[15]~output_o $end
$var wire 1 F! GPIO_0[16]~output_o $end
$var wire 1 G! GPIO_0[17]~output_o $end
$var wire 1 H! GPIO_0[18]~output_o $end
$var wire 1 I! GPIO_0[19]~output_o $end
$var wire 1 J! GPIO_0[20]~output_o $end
$var wire 1 K! GPIO_0[21]~output_o $end
$var wire 1 L! GPIO_0[22]~output_o $end
$var wire 1 M! GPIO_0[23]~output_o $end
$var wire 1 N! GPIO_0[24]~output_o $end
$var wire 1 O! GPIO_0[25]~output_o $end
$var wire 1 P! GPIO_0[26]~output_o $end
$var wire 1 Q! GPIO_0[27]~output_o $end
$var wire 1 R! GPIO_0[28]~output_o $end
$var wire 1 S! GPIO_0[29]~output_o $end
$var wire 1 T! GPIO_0[30]~output_o $end
$var wire 1 U! GPIO_0[31]~output_o $end
$var wire 1 V! GPIO_0[32]~output_o $end
$var wire 1 W! GPIO_0[33]~output_o $end
$var wire 1 X! GPIO_0[0]~output_o $end
$var wire 1 Y! GPIO_0[1]~output_o $end
$var wire 1 Z! GPIO_0[2]~output_o $end
$var wire 1 [! LED[0]~output_o $end
$var wire 1 \! LED[1]~output_o $end
$var wire 1 ]! LED[2]~output_o $end
$var wire 1 ^! LED[3]~output_o $end
$var wire 1 _! LED[4]~output_o $end
$var wire 1 `! LED[5]~output_o $end
$var wire 1 a! LED[6]~output_o $end
$var wire 1 b! LED[7]~output_o $end
$var wire 1 c! R1Clr~output_o $end
$var wire 1 d! R1Src~output_o $end
$var wire 1 e! R0WE~output_o $end
$var wire 1 f! R1WE~output_o $end
$var wire 1 g! R0Src[0]~output_o $end
$var wire 1 h! R0Src[1]~output_o $end
$var wire 1 i! ASrc[0]~output_o $end
$var wire 1 j! ASrc[1]~output_o $end
$var wire 1 k! BSrc[0]~output_o $end
$var wire 1 l! BSrc[1]~output_o $end
$var wire 1 m! ALUCtrl[0]~output_o $end
$var wire 1 n! ALUCtrl[1]~output_o $end
$var wire 1 o! ALUCtrl[2]~output_o $end
$var wire 1 p! AccRight~output_o $end
$var wire 1 q! AccParallel~output_o $end
$var wire 1 r! AccCLR~output_o $end
$var wire 1 s! QParallel~output_o $end
$var wire 1 t! QSrc~output_o $end
$var wire 1 u! QnCLR~output_o $end
$var wire 1 v! RST~output_o $end
$var wire 1 w! QRight~output_o $end
$var wire 1 x! QzSrc~output_o $end
$var wire 1 y! Stat[1]~input_o $end
$var wire 1 z! KEY[1]~input_o $end
$var wire 1 {! GPIO_0[1]~input_o $end
$var wire 1 |! KEY[0]~input_o $end
$var wire 1 }! CONTROL|k[0]~2_combout $end
$var wire 1 ~! CONTROL|k[1]~1_combout $end
$var wire 1 !" CONTROL|k[1]~1clkctrl_outclk $end
$var wire 1 "" CONTROL|Add0~0_combout $end
$var wire 1 #" CONTROL|Add0~1 $end
$var wire 1 $" CONTROL|Add0~2_combout $end
$var wire 1 %" CONTROL|Add0~3 $end
$var wire 1 &" CONTROL|Add0~4_combout $end
$var wire 1 '" CONTROL|Add0~5 $end
$var wire 1 (" CONTROL|Add0~6_combout $end
$var wire 1 )" CONTROL|Add0~7 $end
$var wire 1 *" CONTROL|Add0~8_combout $end
$var wire 1 +" CONTROL|Add0~9 $end
$var wire 1 ," CONTROL|Add0~10_combout $end
$var wire 1 -" CONTROL|Add0~11 $end
$var wire 1 ." CONTROL|Add0~12_combout $end
$var wire 1 /" CONTROL|Add0~13 $end
$var wire 1 0" CONTROL|Add0~14_combout $end
$var wire 1 1" CONTROL|Add0~15 $end
$var wire 1 2" CONTROL|Add0~16_combout $end
$var wire 1 3" CONTROL|Add0~17 $end
$var wire 1 4" CONTROL|Add0~18_combout $end
$var wire 1 5" CONTROL|Add0~19 $end
$var wire 1 6" CONTROL|Add0~20_combout $end
$var wire 1 7" CONTROL|Add0~21 $end
$var wire 1 8" CONTROL|Add0~22_combout $end
$var wire 1 9" CONTROL|Add0~23 $end
$var wire 1 :" CONTROL|Add0~24_combout $end
$var wire 1 ;" CONTROL|Add0~25 $end
$var wire 1 <" CONTROL|Add0~26_combout $end
$var wire 1 =" CONTROL|Add0~27 $end
$var wire 1 >" CONTROL|Add0~28_combout $end
$var wire 1 ?" CONTROL|Add0~29 $end
$var wire 1 @" CONTROL|Add0~30_combout $end
$var wire 1 A" CONTROL|Add0~31 $end
$var wire 1 B" CONTROL|Add0~32_combout $end
$var wire 1 C" CONTROL|Add0~33 $end
$var wire 1 D" CONTROL|Add0~34_combout $end
$var wire 1 E" CONTROL|Add0~35 $end
$var wire 1 F" CONTROL|Add0~36_combout $end
$var wire 1 G" CONTROL|Add0~37 $end
$var wire 1 H" CONTROL|Add0~38_combout $end
$var wire 1 I" CONTROL|Add0~39 $end
$var wire 1 J" CONTROL|Add0~40_combout $end
$var wire 1 K" CONTROL|Add0~41 $end
$var wire 1 L" CONTROL|Add0~42_combout $end
$var wire 1 M" CONTROL|Add0~43 $end
$var wire 1 N" CONTROL|Add0~44_combout $end
$var wire 1 O" CONTROL|Add0~45 $end
$var wire 1 P" CONTROL|Add0~46_combout $end
$var wire 1 Q" CONTROL|Add0~47 $end
$var wire 1 R" CONTROL|Add0~48_combout $end
$var wire 1 S" CONTROL|Add0~49 $end
$var wire 1 T" CONTROL|Add0~50_combout $end
$var wire 1 U" CONTROL|Add0~51 $end
$var wire 1 V" CONTROL|Add0~52_combout $end
$var wire 1 W" CONTROL|Add0~53 $end
$var wire 1 X" CONTROL|Add0~54_combout $end
$var wire 1 Y" CONTROL|Add0~55 $end
$var wire 1 Z" CONTROL|Add0~56_combout $end
$var wire 1 [" CONTROL|Add0~57 $end
$var wire 1 \" CONTROL|Add0~58_combout $end
$var wire 1 ]" CONTROL|Add0~59 $end
$var wire 1 ^" CONTROL|Add0~60_combout $end
$var wire 1 _" CONTROL|NS~11_combout $end
$var wire 1 `" CONTROL|NS~10_combout $end
$var wire 1 a" CONTROL|NS~2_combout $end
$var wire 1 b" SW[2]~input_o $end
$var wire 1 c" SW[0]~input_o $end
$var wire 1 d" SW[1]~input_o $end
$var wire 1 e" CONTROL|NS~0_combout $end
$var wire 1 f" GPIO_0[0]~input_o $end
$var wire 1 g" CONTROL|NS~1_combout $end
$var wire 1 h" CONTROL|NS~3_combout $end
$var wire 1 i" CONTROL|NS~4_combout $end
$var wire 1 j" CONTROL|NS~6_combout $end
$var wire 1 k" CONTROL|NS~8_combout $end
$var wire 1 l" CONTROL|NS~5_combout $end
$var wire 1 m" CONTROL|NS~7_combout $end
$var wire 1 n" CONTROL|NS~9_combout $end
$var wire 1 o" CONTROL|NS~12_combout $end
$var wire 1 p" CONTROL|CS~q $end
$var wire 1 q" CONTROL|k[1]~0_combout $end
$var wire 1 r" CONTROL|BSrc[1]~0_combout $end
$var wire 1 s" CONTROL|BSrc[1]~0clkctrl_outclk $end
$var wire 1 t" CONTROL|R1WE~combout $end
$var wire 1 u" CONTROL|ALUCtrl[2]~0_combout $end
$var wire 1 v" CONTROL|ALUCtrl[2]~0clkctrl_outclk $end
$var wire 1 w" CONTROL|BSrc [1] $end
$var wire 1 x" CONTROL|BSrc [0] $end
$var wire 1 y" CONTROL|ALUCtrl [2] $end
$var wire 1 z" CONTROL|ALUCtrl [1] $end
$var wire 1 {" CONTROL|ALUCtrl [0] $end
$var wire 1 |" CONTROL|k [31] $end
$var wire 1 }" CONTROL|k [30] $end
$var wire 1 ~" CONTROL|k [29] $end
$var wire 1 !# CONTROL|k [28] $end
$var wire 1 "# CONTROL|k [27] $end
$var wire 1 ## CONTROL|k [26] $end
$var wire 1 $# CONTROL|k [25] $end
$var wire 1 %# CONTROL|k [24] $end
$var wire 1 &# CONTROL|k [23] $end
$var wire 1 '# CONTROL|k [22] $end
$var wire 1 (# CONTROL|k [21] $end
$var wire 1 )# CONTROL|k [20] $end
$var wire 1 *# CONTROL|k [19] $end
$var wire 1 +# CONTROL|k [18] $end
$var wire 1 ,# CONTROL|k [17] $end
$var wire 1 -# CONTROL|k [16] $end
$var wire 1 .# CONTROL|k [15] $end
$var wire 1 /# CONTROL|k [14] $end
$var wire 1 0# CONTROL|k [13] $end
$var wire 1 1# CONTROL|k [12] $end
$var wire 1 2# CONTROL|k [11] $end
$var wire 1 3# CONTROL|k [10] $end
$var wire 1 4# CONTROL|k [9] $end
$var wire 1 5# CONTROL|k [8] $end
$var wire 1 6# CONTROL|k [7] $end
$var wire 1 7# CONTROL|k [6] $end
$var wire 1 8# CONTROL|k [5] $end
$var wire 1 9# CONTROL|k [4] $end
$var wire 1 :# CONTROL|k [3] $end
$var wire 1 ;# CONTROL|k [2] $end
$var wire 1 <# CONTROL|k [1] $end
$var wire 1 =# CONTROL|k [0] $end
$upscope $end
$upscope $end
$enddefinitions $end
#0
$dumpvars
bx000 !
b1x "
0#
0$
x%
0&
0'
bx000 (
b0 )
x,
x+
x*
1.
1-
0/
00
01
x3
x2
0U
0T
0S
xR
xQ
xP
xO
xN
xM
xL
xK
xJ
xI
xH
xG
xF
xE
xD
xC
xB
xA
x@
x?
x>
x=
x<
x;
x:
x9
x8
x7
x6
x5
x4
0]
0\
0[
0Z
0Y
0X
0W
0V
0^
0_
0`
0a
0b
xd
1c
1e
0f
0g
xh
0i
0j
1k
xl
1m
1n
1o
xp
0q
0r
0s
0t
0u
xv
xw
xx
xy
xz
x{
x|
x}
x~
x!!
x"!
x#!
x$!
x%!
x&!
x'!
x(!
x)!
x*!
x+!
x,!
x-!
x.!
x/!
x0!
x1!
x2!
x3!
x4!
x5!
x6!
x7!
08!
z9!
z:!
z;!
z<!
z=!
z>!
z?!
z@!
zA!
zB!
zC!
zD!
zE!
zF!
zG!
zH!
zI!
zJ!
zK!
zL!
zM!
zN!
zO!
zP!
zQ!
zR!
zS!
zT!
zU!
zV!
zW!
zX!
zY!
0Z!
0[!
0\!
0]!
0^!
0_!
0`!
0a!
0b!
0c!
0d!
1e!
xf!
xg!
1h!
1i!
1j!
xk!
xl!
xm!
xn!
xo!
0p!
0q!
0r!
0s!
0t!
0u!
0v!
0w!
0x!
0y!
1z!
0{!
x|!
x}!
x~!
x!"
x""
x#"
x$"
x%"
x&"
x'"
x("
x)"
x*"
x+"
x,"
x-"
x."
x/"
x0"
x1"
x2"
x3"
x4"
x5"
x6"
x7"
x8"
x9"
x:"
x;"
x<"
x="
x>"
x?"
x@"
xA"
xB"
xC"
xD"
xE"
xF"
xG"
xH"
xI"
xJ"
xK"
xL"
xM"
xN"
xO"
xP"
xQ"
xR"
xS"
xT"
xU"
xV"
xW"
xX"
xY"
xZ"
x["
x\"
x]"
x^"
x_"
x`"
xa"
0b"
0c"
0d"
xe"
0f"
0g"
xh"
0i"
xj"
xk"
xl"
xm"
xn"
0o"
0p"
1q"
xr"
xs"
xt"
0u"
0v"
zx"
xw"
x{"
xz"
xy"
z=#
x<#
x;#
x:#
x9#
x8#
x7#
x6#
x5#
x4#
x3#
x2#
x1#
x0#
x/#
x.#
x-#
x,#
x+#
x*#
x)#
x(#
x'#
x&#
x%#
x$#
x##
x"#
x!#
x~"
x}"
x|"
$end
#100000
b0x "
0z!
#200000
b1x "
1z!
#300000
b0x "
0z!
#400000
b1x "
1z!
#500000
b0x "
0z!
#600000
b1x "
1z!
#700000
b0x "
0z!
#800000
b1x "
1z!
#900000
b0x "
0z!
