EE446/archlabs/lab1full/lab1/simulation/qsim/pre.msim.vcd
$comment
	File created using the following command:
		vcd file pre.msim.vcd -direction
$end
$date
	Fri Mar 30 00:17:37 2018
$end
$version
	ModelSim Version 10.3d
$end
$timescale
	1ps
$end

$scope module datapath_vlg_vec_tst $end
$var reg 1 ! aluoutselect $end
$var reg 1 " clock $end
$var reg 8 # input1 [7:0] $end
$var reg 1 $ loadorincrload $end
$var reg 1 % ps1sonra0 $end
$var reg 1 & reset $end
$var reg 1 ' sonmuilk2islemmi $end
$var wire 1 ( outr1 [7] $end
$var wire 1 ) outr1 [6] $end
$var wire 1 * outr1 [5] $end
$var wire 1 + outr1 [4] $end
$var wire 1 , outr1 [3] $end
$var wire 1 - outr1 [2] $end
$var wire 1 . outr1 [1] $end
$var wire 1 / outr1 [0] $end
$var wire 1 0 sampler $end

$scope module i1 $end
$var wire 1 1 gnd $end
$var wire 1 2 vcc $end
$var wire 1 3 unknown $end
$var tri1 1 4 devclrn $end
$var tri1 1 5 devpor $end
$var tri1 1 6 devoe $end
$var wire 1 7 outr1[7]~output_o $end
$var wire 1 8 outr1[6]~output_o $end
$var wire 1 9 outr1[5]~output_o $end
$var wire 1 : outr1[4]~output_o $end
$var wire 1 ; outr1[3]~output_o $end
$var wire 1 < outr1[2]~output_o $end
$var wire 1 = outr1[1]~output_o $end
$var wire 1 > outr1[0]~output_o $end
$var wire 1 ? clock~input_o $end
$var wire 1 @ input1[7]~input_o $end
$var wire 1 A reset~input_o $end
$var wire 1 B inst7|out~0_combout $end
$var wire 1 C input1[6]~input_o $end
$var wire 1 D inst7|out~1_combout $end
$var wire 1 E input1[5]~input_o $end
$var wire 1 F inst7|out~2_combout $end
$var wire 1 G input1[4]~input_o $end
$var wire 1 H inst7|out~3_combout $end
$var wire 1 I input1[3]~input_o $end
$var wire 1 J inst7|out~4_combout $end
$var wire 1 K input1[2]~input_o $end
$var wire 1 L inst7|out~5_combout $end
$var wire 1 M input1[1]~input_o $end
$var wire 1 N inst7|out~6_combout $end
$var wire 1 O input1[0]~input_o $end
$var wire 1 P inst7|out~7_combout $end
$var wire 1 Q loadorincrload~input_o $end
$var wire 1 R inst|Add0~1 $end
$var wire 1 S inst|Add0~3 $end
$var wire 1 T inst|Add0~5 $end
$var wire 1 U inst|Add0~7 $end
$var wire 1 V inst|Add0~9 $end
$var wire 1 W inst|Add0~11 $end
$var wire 1 X inst|Add0~13 $end
$var wire 1 Y inst|Add0~14_combout $end
$var wire 1 Z aluoutselect~input_o $end
$var wire 1 [ inst|Add0~12_combout $end
$var wire 1 \ inst|Add0~10_combout $end
$var wire 1 ] inst|Add0~8_combout $end
$var wire 1 ^ inst|Add0~6_combout $end
$var wire 1 _ inst|Add0~4_combout $end
$var wire 1 ` inst|Add0~2_combout $end
$var wire 1 a ps1sonra0~input_o $end
$var wire 1 b inst|Add0~0_combout $end
$var wire 1 c inst5|out~7_combout $end
$var wire 1 d inst5|out~6_combout $end
$var wire 1 e inst5|out~5_combout $end
$var wire 1 f inst5|out~4_combout $end
$var wire 1 g inst5|out~3_combout $end
$var wire 1 h inst5|out~2_combout $end
$var wire 1 i inst5|out~1_combout $end
$var wire 1 j inst5|out~0_combout $end
$var wire 1 k inst9|out~0_combout $end
$var wire 1 l sonmuilk2islemmi~input_o $end
$var wire 1 m inst6|out~0_combout $end
$var wire 1 n inst9|out~1_combout $end
$var wire 1 o inst6|out~1_combout $end
$var wire 1 p inst9|out~2_combout $end
$var wire 1 q inst6|out~2_combout $end
$var wire 1 r inst9|out~3_combout $end
$var wire 1 s inst6|out~3_combout $end
$var wire 1 t inst9|out~4_combout $end
$var wire 1 u inst6|out~4_combout $end
$var wire 1 v inst9|out~5_combout $end
$var wire 1 w inst6|out~5_combout $end
$var wire 1 x inst9|out~6_combout $end
$var wire 1 y inst6|out~6_combout $end
$var wire 1 z inst9|out~7_combout $end
$var wire 1 { inst6|out~7_combout $end
$var wire 1 | inst6|out [7] $end
$var wire 1 } inst6|out [6] $end
$var wire 1 ~ inst6|out [5] $end
$var wire 1 !! inst6|out [4] $end
$var wire 1 "! inst6|out [3] $end
$var wire 1 #! inst6|out [2] $end
$var wire 1 $! inst6|out [1] $end
$var wire 1 %! inst6|out [0] $end
$var wire 1 &! inst5|out [7] $end
$var wire 1 '! inst5|out [6] $end
$var wire 1 (! inst5|out [5] $end
$var wire 1 )! inst5|out [4] $end
$var wire 1 *! inst5|out [3] $end
$var wire 1 +! inst5|out [2] $end
$var wire 1 ,! inst5|out [1] $end
$var wire 1 -! inst5|out [0] $end
$var wire 1 .! inst9|out [7] $end
$var wire 1 /! inst9|out [6] $end
$var wire 1 0! inst9|out [5] $end
$var wire 1 1! inst9|out [4] $end
$var wire 1 2! inst9|out [3] $end
$var wire 1 3! inst9|out [2] $end
$var wire 1 4! inst9|out [1] $end
$var wire 1 5! inst9|out [0] $end
$var wire 1 6! inst7|out [7] $end
$var wire 1 7! inst7|out [6] $end
$var wire 1 8! inst7|out [5] $end
$var wire 1 9! inst7|out [4] $end
$var wire 1 :! inst7|out [3] $end
$var wire 1 ;! inst7|out [2] $end
$var wire 1 <! inst7|out [1] $end
$var wire 1 =! inst7|out [0] $end
$var wire 1 >! inst44|dout1 [7] $end
$var wire 1 ?! inst44|dout1 [6] $end
$var wire 1 @! inst44|dout1 [5] $end
$var wire 1 A! inst44|dout1 [4] $end
$var wire 1 B! inst44|dout1 [3] $end
$var wire 1 C! inst44|dout1 [2] $end
$var wire 1 D! inst44|dout1 [1] $end
$var wire 1 E! inst44|dout1 [0] $end
$var wire 1 F! inst44|dout2 [7] $end
$var wire 1 G! inst44|dout2 [6] $end
$var wire 1 H! inst44|dout2 [5] $end
$var wire 1 I! inst44|dout2 [4] $end
$var wire 1 J! inst44|dout2 [3] $end
$var wire 1 K! inst44|dout2 [2] $end
$var wire 1 L! inst44|dout2 [1] $end
$var wire 1 M! inst44|dout2 [0] $end
$upscope $end
$upscope $end
$enddefinitions $end
#0
$dumpvars
0!
0"
b111 #
0$
0%
0&
0'
0/
0.
0-
0,
0+
0*
0)
0(
x0
01
12
x3
14
15
16
07
08
09
0:
0;
0<
0=
0>
0?
0@
0A
0B
0C
0D
0E
0F
0G
0H
0I
0J
1K
1L
1M
1N
1O
1P
0Q
0R
1S
0T
1U
0V
1W
0X
0Y
0Z
0[
0\
0]
0^
0_
0`
0a
1b
0c
0d
0e
0f
0g
0h
0i
0j
0k
0l
0m
0n
0o
0p
0q
0r
0s
0t
0u
0v
0w
0x
0y
0z
0{
0%!
0$!
0#!
0"!
0!!
0~
0}
0|
0-!
0,!
0+!
0*!
0)!
0(!
0'!
0&!
05!
04!
03!
02!
01!
00!
0/!
0.!
0=!
0<!
0;!
0:!
09!
08!
07!
06!
1E!
0D!
0C!
0B!
0A!
0@!
0?!
0>!
xM!
xL!
xK!
xJ!
xI!
xH!
xG!
xF!
$end
#20000
1"
00
1?
1=!
1<!
1;!
1R
0b
1`
1_
0S
0`
0E!
1D!
1C!
1T
0_
0D!
1^
0C!
1B!
#40000
1$
0"
1Q
10
0?
0R
1b
1S
1`
1E!
0T
1_
1D!
0^
1C!
0B!
#50000
1'
1l
00
1{
1y
1w
#60000
1"
10
1?
1%!
1$!
1#!
1<
1=
1>
1-
1.
1/
#80000
0$
0'
0"
0Q
0l
00
0?
1R
0b
0{
0y
0w
0S
0`
0E!
1T
0_
0D!
1^
0C!
1B!
#90000
1&
1A
10
0P
0N
0L
#100000
1"
00
1?
0=!
0<!
0;!
0%!
0$!
0#!
0<
0=
0>
0R
1b
1S
1`
0T
1_
0-
0.
0/
0`
1E!
0_
1D!
0^
1C!
0D!
0C!
0B!
#110000
0&
0A
10
1P
1N
1L
#120000
0"
00
0?
#140000
1"
10
1?
1=!
1<!
1;!
1R
0b
1`
1_
0S
0`
0E!
1D!
1C!
1T
0_
0D!
1^
0C!
1B!
#160000
0"
00
0?
#170000
1'
1l
10
1u
#180000
1"
00
1?
1"!
1;
1,
#190000
0'
0l
10
0u
#200000
0"
00
0?
#210000
1&
1A
10
0P
0N
0L
#220000
1"
00
1?
0=!
0<!
0;!
0"!
0;
0R
1b
1S
1`
0T
1_
0,
0`
1E!
0_
1D!
0^
1C!
0D!
0C!
0B!
#230000
0&
0A
10
1P
1N
1L
#240000
0"
00
0?
#250000
1!
1$
1Z
1Q
10
1M!
0L!
0K!
0J!
0I!
0H!
0G!
0F!
0b
0M!
#260000
1"
00
1?
1=!
1<!
1;!
1b
1`
1_
1M!
1L!
1K!
#270000
0!
0$
0Z
0Q
10
1D!
1C!
1R
0b
0S
0`
0E!
1T
0_
0D!
1^
0C!
1B!
#280000
0"
00
0?
#290000
1%
1a
10
1e
1d
1c
#300000
1"
00
1?
1+!
1,!
1-!
#310000
0%
0a
10
1f
0c
#320000
0"
00
0?
#340000
1"
10
1?
1*!
0-!
1g
0d
#360000
0"
00
0?
#380000
1"
10
1?
1)!
0,!
1h
0e
#400000
0"
00
0?
#420000
1"
10
1?
1(!
0+!
1i
0f
#440000
0"
00
0?
#460000
1"
10
1?
1'!
0*!
1j
0g
#480000
0"
00
0?
#500000
1"
10
1?
1&!
0)!
1k
0h
#520000
0"
00
0?
#540000
1"
10
1?
1.!
0(!
1n
1m
0i
#560000
0"
00
0?
#580000
1"
10
1?
1/!
0'!
1|
17
1(
1p
1o
0j
#600000
0"
00
0?
#620000
1"
10
1?
10!
0&!
1}
18
1)
1r
1q
0k
#640000
0"
00
0?
#660000
1"
10
1?
11!
0.!
1~
19
1*
1t
1s
0n
0m
#680000
0"
00
0?
#700000
1"
10
1?
12!
0/!
1!!
0|
07
1:
0(
1+
1v
1u
0p
0o
#720000
0"
00
0?
#740000
1"
10
1?
13!
00!
1"!
0}
08
1;
0)
1,
1x
1w
0r
0q
#760000
0"
00
0?
#780000
1"
10
1?
14!
01!
1#!
0~
09
1<
0*
1-
1z
1y
0t
0s
#800000
0"
00
0?
#820000
1"
10
1?
15!
02!
1$!
0!!
0:
1=
0+
1.
1{
0v
0u
#840000
0"
00
0?
#860000
1"
10
1?
03!
1%!
0"!
0;
1>
0,
1/
0x
0w
#880000
0"
00
0?
#900000
1"
10
1?
04!
0#!
0<
0-
0z
0y
#920000
0"
00
0?
#940000
1"
10
1?
05!
0$!
0=
0.
0{
#960000
0"
00
0?
#980000
1"
10
1?
0%!
0>
0/
